"","study_id","count","cancer_type","cancer_name"
"3","msk_impact_2017",7189,"31291114151810167178214513","31291114151810167178214513"
"68","brca_metabric",1860,"1","Breast cancer"
"126","brca_tcga_pan_can_atlas_2018",1064,"1","Breast cancer"
"62","brca_tcga",975,"1","Breast cancer"
"107","breast_msk_2018",964,"1","Breast cancer"
"34","nsclc_tcga_broad_2016",954,"3","Lung cancer"
"4","tmb_mskcc_2018",830,"111374182178","111374182178"
"71","brca_tcga_pub2015",800,"1","Breast cancer"
"18","lgggbm_tcga_pub",744,"17","CNS malignancies"
"22","glioma_mskcc_2019",549,"17","CNS malignancies"
"129","coadread_tcga_pan_can_atlas_2018",530,"2","Colorectal cancer"
"148","ov_tcga_pan_can_atlas_2018",519,"12","Gynecologic cancer"
"50","stes_tcga_pub",518,"4","Gastroesophageal cancer"
"128","ucec_tcga_pan_can_atlas_2018",516,"12","Gynecologic cancer"
"134","hnsc_tcga_pan_can_atlas_2018",514,"7","Head and Neck cancer"
"113","hnsc_tcga",508,"7","Head and Neck cancer"
"72","brca_tcga_pub",506,"1","Breast cancer"
"145","luad_tcga_pan_can_atlas_2018",505,"3","Lung cancer"
"149","lgg_tcga_pan_can_atlas_2018",502,"17","CNS malignancies"
"117","prad_tcga",497,"16","Prostate cancer"
"39","prad_tcga_pan_can_atlas_2018",494,"16","Prostate cancer"
"43","thca_tcga_pan_can_atlas_2018",483,"14","Thyroid cancer"
"146","lusc_tcga_pan_can_atlas_2018",478,"3","Lung cancer"
"67","aml_ohsu_2018",461,"8","Hematologic malignancies"
"77","kirc_tcga",451,"18","Other malignancies"
"48","stad_tcga_pan_can_atlas_2018",430,"4","Gastroesophageal cancer"
"41","skcm_tcga_pan_can_atlas_2018",423,"18","Other malignancies"
"66","blca_tcga_pub_2017",408,"11","Bladder/Ureter cancer"
"125","blca_tcga_pan_can_atlas_2018",408,"11","Bladder/Ureter cancer"
"35","thca_tcga",402,"14","Thyroid cancer"
"136","kirc_tcga_pan_can_atlas_2018",401,"18","Other malignancies"
"139","crc_msk_2017",388,"2","Colorectal cancer"
"133","gbm_tcga_pan_can_atlas_2018",386,"17","CNS malignancies"
"53","lihc_tcga",372,"9","HCC"
"96","stad_tcga",365,"4","Gastroesophageal cancer"
"144","lihc_tcga_pan_can_atlas_2018",365,"9","HCC"
"115","skcm_tcga",358,"18","Other malignancies"
"81","kirc_tcga_pub",345,"18","Other malignancies"
"89","ov_tcga_pub",315,"12","Gynecologic cancer"
"85","luad_oncosg_2020",299,"3","Lung cancer"
"127","cesc_tcga_pan_can_atlas_2018",291,"12","Gynecologic cancer"
"49","skcm_tcga_pub_2015",281,"18","Other malignancies"
"70","gbm_tcga",281,"17","CNS malignancies"
"79","kirp_tcga",281,"18","Other malignancies"
"137","kirp_tcga_pan_can_atlas_2018",275,"18","Other malignancies"
"78","lgg_tcga",273,"17","CNS malignancies"
"83","gbm_tcga_pub2013",255,"17","CNS malignancies"
"40","sarc_tcga_pan_can_atlas_2018",254,"15","Sarcoma"
"1","mixed_allen_2018",249,"18113715","18113715"
"97","ucec_tcga",247,"12","Gynecologic cancer"
"31","mbn_mdacc_2013",241,"8","Hematologic malignancies"
"122","ov_tcga",232,"12","Gynecologic cancer"
"17","lihc_amc_prv",231,"9","HCC"
"29","stad_tcga_pub",227,"4","Gastroesophageal cancer"
"118","sarc_tcga",227,"15","Sarcoma"
"69","coadread_tcga",222,"2","Colorectal cancer"
"86","luad_tcga",219,"3","Lung cancer"
"92","sarc_tcga_pub",206,"15","Sarcoma"
"99","thca_tcga_pub",205,"14","Thyroid cancer"
"88","luad_tcga_pub",195,"3","Lung cancer"
"108","cesc_tcga",194,"12","Gynecologic cancer"
"56","prad_cpcg_2017",188,"16","Prostate cancer"
"76","laml_tcga",185,"8","Hematologic malignancies"
"132","esca_tcga_pan_can_atlas_2018",182,"4","Gastroesophageal cancer"
"38","pcpg_tcga_pan_can_atlas_2018",178,"15","Sarcoma"
"37","paad_tcga_pan_can_atlas_2018",177,"5","Pancreatic cancer"
"87","lusc_tcga",175,"3","Lung cancer"
"84","hnsc_tcga_pub",159,"7","Head and Neck cancer"
"58","ampca_bcm_2016",151,"10","Other GI cancer"
"65","aml_target_2018_pub",150,"8","Hematologic malignancies"
"116","paad_tcga",150,"5","Pancreatic cancer"
"143","laml_tcga_pan_can_atlas_2018",148,"8","Hematologic malignancies"
"91","nbl_target_2018_pub",147,"13","Neuroendocrine cancer"
"123","mel_dfci_2019",144,"18","Other malignancies"
"119","tgct_tcga",133,"18","Other malignancies"
"100","ucec_tcga_pub",131,"12","Gynecologic cancer"
"63","blca_tcga_pub",130,"11","Bladder/Ureter cancer"
"42","tgct_tcga_pan_can_atlas_2018",128,"18","Other malignancies"
"51","prad_su2c_2019",128,"16","Prostate cancer"
"105","blca_tcga",128,"11","Bladder/Ureter cancer"
"16","dlbcl_dfci_2018",127,"8","Hematologic malignancies"
"112","esca_tcga",125,"4","Gastroesophageal cancer"
"44","thym_tcga_pan_can_atlas_2018",122,"18","Other malignancies"
"120","thym_tcga",122,"18","Other malignancies"
"73","coadread_tcga_pub",119,"2","Colorectal cancer"
"94","skcm_dfci_2015",110,"18","Other malignancies"
"14","es_iocurie_2014",102,"4","Gastroesophageal cancer"
"57","ihch_smmu_2014",102,"6","Biliary cancer"
"103","wt_target_2018_pub",102,"18","Other malignancies"
"95","sclc_ucologne_2015",101,"3","Lung cancer"
"52","coad_cptac_2019",100,"2","Colorectal cancer"
"80","laml_tcga_pub",98,"8","Hematologic malignancies"
"101","blca_mskcc_solit_2014",98,"11","Bladder/Ureter cancer"
"11","panet_arcnet_2017",96,"5","Pancreatic cancer"
"9","mbl_icgc",93,"17","CNS malignancies"
"55","thyroid_mskcc_2016",91,"14","Thyroid cancer"
"124","acc_tcga_pan_can_atlas_2018",91,"13","Neuroendocrine cancer"
"104","acc_tcga",90,"13","Neuroendocrine cancer"
"26","escc_icgc",88,"4","Gastroesophageal cancer"
"2","mixed_pipseq_2017",87,"1518812317913","1518812317913"
"147","meso_tcga_pan_can_atlas_2018",85,"3","Lung cancer"
"74","gbm_tcga_pub",83,"17","CNS malignancies"
"47","mnm_washu_2016",81,"8","Hematologic malignancies"
"75","gbm_mayo_pdx_sarkaria_2019",81,"17","CNS malignancies"
"46","uvm_tcga_pan_can_atlas_2018",80,"18","Other malignancies"
"114","egc_tmucih_2015",76,"4","Gastroesophageal cancer"
"140","lung_msk_pdx",75,"3","Lung cancer"
"6","nbl_amc_2012",72,"13","Neuroendocrine cancer"
"106","utuc_mskcc_2015",70,"11","Bladder/Ureter cancer"
"36","uvm_tcga",68,"18","Other malignancies"
"27","skcm_vanderbilt_mskcc_2015",66,"18","Other malignancies"
"60","acc_2019",66,"13","Neuroendocrine cancer"
"64","all_phase2_target_2018_pub",66,"8","Hematologic malignancies"
"110","kich_tcga",65,"18","Other malignancies"
"135","kich_tcga_pan_can_atlas_2018",65,"18","Other malignancies"
"82","kich_tcga_pub",64,"18","Other malignancies"
"102","skcm_mskcc_2014",64,"18","Other malignancies"
"45","ucs_tcga_pan_can_atlas_2018",57,"12","Gynecologic cancer"
"21","chol_msk_2018",52,"6","Biliary cancer"
"7","npc_nusingapore",50,"7","Head and Neck cancer"
"59","acyc_mskcc_2013",50,"7","Head and Neck cancer"
"28","usarc_msk_2020",48,"15","Sarcoma"
"33","prad_mich",48,"16","Prostate cancer"
"111","dlbc_tcga",48,"8","Hematologic malignancies"
"24","hnc_mskcc_2016",44,"7","Head and Neck cancer"
"131","dlbc_tcga_pan_can_atlas_2018",41,"8","Hematologic malignancies"
"15","cscc_hgsc_bcm_2014",38,"18","Other malignancies"
"90","mel_ucla_2016",37,"18","Other malignancies"
"130","chol_tcga_pan_can_atlas_2018",36,"6","Biliary cancer"
"30","mel_tsam_liang_2017",34,"18","Other malignancies"
"109","chol_tcga",33,"6","Biliary cancer"
"141","egc_trap_msk_2020",31,"4","Gastroesophageal cancer"
"5","hnsc_mdanderson_2013",30,"7","Head and Neck cancer"
"13","cscc_dfarber_2015",29,"18","Other malignancies"
"93","rt_target_2018_pub",28,"18","Other malignancies"
"10","mbl_sickkids_2016",26,"17","CNS malignancies"
"138","blca_mskcc_solit_2012",25,"11","Bladder/Ureter cancer"
"98","blca_plasmacytoid_mskcc_2016",23,"11","Bladder/Ureter cancer"
"54","lgg_ucsf_2014",22,"17","CNS malignancies"
"121","stad_uhongkong",22,"4","Gastroesophageal cancer"
"8","plmeso_nyu_2015",21,"3","Lung cancer"
"20","urcc_mskcc_2016",20,"18","Other malignancies"
"19","odg_msk_2017",17,"17","CNS malignancies"
"142","blca_msk_tcga_2020",16,"11","Bladder/Ureter cancer"
"23","gbm_columbia_2019",15,"17","CNS malignancies"
"32","nhl_bcgsc_2011",13,"8","Hematologic malignancies"
"12","pcnsl_mayo_2015",9,"17","CNS malignancies"
"61","chol_nus_2012",8,"6","Biliary cancer"
"25","sclc_cancercell_gardner_2017",2,"3","Lung cancer"
