"study_id","count","cancer_type","cancer_name","subset"
"msk_impact_2017",7102,0,"0",0
"brca_metabric",1748,1,"Breast cancer",0
"breast_msk_2018",1662,1,"Breast cancer",0
"tmb_mskcc_2018",1609,0,"0",0
"crc_msk_2017",980,2,"Colorectal cancer",0
"brca_tcga_pan_can_atlas_2018",978,1,"Breast cancer",0
"nsclc_tcga_broad_2016",935,3,"Lung cancer",0
"glioma_mskcc_2019",915,17,"CNS malignancies",0
"brca_tcga",881,1,"Breast cancer",0
"brca_tcga_pub2015",761,1,"Breast cancer",1
"lgggbm_tcga_pub",703,17,"CNS malignancies",0
"ucec_tcga_pan_can_atlas_2018",514,12,"Gynecologic cancer",0
"coadread_tcga_pan_can_atlas_2018",514,2,"Colorectal cancer",0
"stes_tcga_pub",507,4,"Gastroesophageal cancer",0
"hnsc_tcga",502,7,"Head and Neck cancer",0
"lgg_tcga_pan_can_atlas_2018",501,17,"CNS malignancies",0
"hnsc_tcga_pan_can_atlas_2018",499,7,"Head and Neck cancer",0
"luad_tcga_pan_can_atlas_2018",491,3,"Lung cancer",0
"brca_tcga_pub",473,1,"Breast cancer",1
"lusc_tcga_pan_can_atlas_2018",459,3,"Lung cancer",1
"thca_tcga_pan_can_atlas_2018",447,14,"Thyroid cancer",0
"prad_tcga_pan_can_atlas_2018",437,16,"Prostate cancer",0
"ov_tcga_pan_can_atlas_2018",435,12,"Gynecologic cancer",1
"aml_ohsu_2018",431,8,"Hematologic malignancies",0
"kirc_tcga",426,18,"Other malignancies",0
"skcm_tcga_pan_can_atlas_2018",419,18,"Other malignancies",0
"stad_tcga_pan_can_atlas_2018",418,4,"Gastroesophageal cancer",0
"kirc_tcga_pub",405,18,"Other malignancies",0
"blca_tcga_pan_can_atlas_2018",405,11,"Bladder/Ureter cancer",0
"blca_tcga_pub_2017",404,11,"Bladder/Ureter cancer",0
"prad_tcga",400,16,"Prostate cancer",1
"blca_msk_tcga_2020",385,11,"Bladder/Ureter cancer",1
"stad_tcga",376,4,"Gastroesophageal cancer",1
"gbm_tcga_pan_can_atlas_2018",369,17,"CNS malignancies",1
"lihc_tcga",355,9,"HCC",0
"skcm_tcga",353,18,"Other malignancies",0
"lihc_tcga_pan_can_atlas_2018",347,9,"HCC",0
"kirc_tcga_pan_can_atlas_2018",337,18,"Other malignancies",0
"thca_tcga",334,14,"Thyroid cancer",0
"ov_tcga_pub",312,12,"Gynecologic cancer",1
"thca_tcga_pub",310,14,"Thyroid cancer",1
"ov_tcga",308,12,"Gynecologic cancer",0
"skcm_tcga_pub_2015",276,18,"Other malignancies",0
"lgg_tcga",276,17,"CNS malignancies",1
"luad_oncosg_2020",274,3,"Lung cancer",1
"cesc_tcga_pan_can_atlas_2018",269,12,"Gynecologic cancer",0
"gbm_tcga",268,17,"CNS malignancies",0
"mixed_allen_2018",249,0,"0",0
"ucec_tcga",246,12,"Gynecologic cancer",0
"ucec_tcga_pub",246,12,"Gynecologic cancer",0
"kirp_tcga",245,18,"Other malignancies",0
"kirp_tcga_pan_can_atlas_2018",243,18,"Other malignancies",0
"gbm_tcga_pub2013",235,17,"CNS malignancies",0
"sarc_tcga_pan_can_atlas_2018",229,15,"Sarcoma",0
"mbn_mdacc_2013",224,8,"Hematologic malignancies",0
"stad_tcga_pub",221,4,"Gastroesophageal cancer",0
"coadread_tcga",221,2,"Colorectal cancer",1
"coadread_tcga_pub",221,2,"Colorectal cancer",0
"luad_tcga",217,3,"Lung cancer",0
"lihc_amc_prv",209,9,"HCC",1
"sarc_tcga",202,15,"Sarcoma",1
"luad_tcga_pub",200,3,"Lung cancer",0
"chol_msk_2018",182,6,"Biliary cancer",0
"esca_tcga",181,4,"Gastroesophageal cancer",0
"esca_tcga_pan_can_atlas_2018",179,4,"Gastroesophageal cancer",0
"laml_tcga_pub",178,8,"Hematologic malignancies",1
"lusc_tcga",173,3,"Lung cancer",0
"laml_tcga_pan_can_atlas_2018",172,8,"Hematologic malignancies",0
"cesc_tcga",171,12,"Gynecologic cancer",0
"sarc_tcga_pub",170,15,"Sarcoma",0
"laml_tcga",159,8,"Hematologic malignancies",1
"hnsc_tcga_pub",159,7,"Head and Neck cancer",1
"paad_tcga_pan_can_atlas_2018",155,5,"Pancreatic cancer",0
"paad_tcga",150,5,"Pancreatic cancer",1
"ampca_bcm_2016",149,10,"Other GI cancer",0
"mel_dfci_2019",142,18,"Other malignancies",0
"blca_tcga_pub",130,11,"Bladder/Ureter cancer",0
"hnc_mskcc_2016",128,7,"Head and Neck cancer",1
"blca_tcga",128,11,"Bladder/Ureter cancer",0
"dlbcl_dfci_2018",123,8,"Hematologic malignancies",0
"prad_su2c_2019",118,16,"Prostate cancer",0
"tgct_tcga",117,18,"Other malignancies",0
"thyroid_mskcc_2016",112,14,"Thyroid cancer",0
"skcm_dfci_2015",107,18,"Other malignancies",0
"acc_2019",106,13,"Neuroendocrine cancer",0
"aml_target_2018_pub",101,8,"Hematologic malignancies",0
"coad_cptac_2019",100,2,"Colorectal cancer",1
"sclc_ucologne_2015",100,3,"Lung cancer",0
"blca_mskcc_solit_2014",97,11,"Bladder/Ureter cancer",0
"usarc_msk_2020",92,15,"Sarcoma",0
"pcpg_tcga_pan_can_atlas_2018",91,15,"Sarcoma",0
"prad_cpcg_2017",84,16,"Prostate cancer",0
"ihch_smmu_2014",82,6,"Biliary cancer",0
"acc_tcga",82,13,"Neuroendocrine cancer",1
"escc_icgc",81,4,"Gastroesophageal cancer",0
"mnm_washu_2016",81,8,"Hematologic malignancies",0
"mixed_pipseq_2017",81,0,"0",0
"gbm_mayo_pdx_sarkaria_2019",79,17,"CNS malignancies",0
"uvm_tcga_pan_can_atlas_2018",78,18,"Other malignancies",0
"lung_msk_pdx",75,3,"Lung cancer",0
"gbm_tcga_pub",72,17,"CNS malignancies",0
"egc_tmucih_2015",72,4,"Gastroesophageal cancer",0
"acc_tcga_pan_can_atlas_2018",71,13,"Neuroendocrine cancer",0
"meso_tcga_pan_can_atlas_2018",71,3,"Lung cancer",0
"utuc_mskcc_2015",69,11,"Bladder/Ureter cancer",0
"uvm_tcga",68,18,"Other malignancies",0
"panet_arcnet_2017",67,5,"Pancreatic cancer",0
"tgct_tcga_pan_can_atlas_2018",67,18,"Other malignancies",0
"skcm_vanderbilt_mskcc_2015",66,18,"Other malignancies",0
"thym_tcga_pan_can_atlas_2018",61,18,"Other malignancies",0
"skcm_mskcc_2014",60,18,"Other malignancies",0
"kich_tcga",60,18,"Other malignancies",0
"ucs_tcga_pan_can_atlas_2018",56,12,"Gynecologic cancer",0
"mbl_icgc",55,17,"CNS malignancies",0
"kich_tcga_pan_can_atlas_2018",50,18,"Other malignancies",0
"dlbc_tcga",48,8,"Hematologic malignancies",0
"prad_mich",47,16,"Prostate cancer",0
"thym_tcga",46,18,"Other malignancies",0
"es_iocurie_2014",45,4,"Gastroesophageal cancer",0
"kich_tcga_pub",41,18,"Other malignancies",1
"wt_target_2018_pub",41,18,"Other malignancies",0
"dlbc_tcga_pan_can_atlas_2018",39,8,"Hematologic malignancies",0
"cscc_hgsc_bcm_2014",38,18,"Other malignancies",0
"nbl_target_2018_pub",38,13,"Neuroendocrine cancer",0
"mel_ucla_2016",37,18,"Other malignancies",0
"chol_tcga_pan_can_atlas_2018",34,6,"Biliary cancer",1
"all_phase2_target_2018_pub",32,8,"Hematologic malignancies",0
"chol_tcga",32,6,"Biliary cancer",0
"egc_trap_msk_2020",32,4,"Gastroesophageal cancer",0
"npc_nusingapore",31,7,"Head and Neck cancer",0
"cscc_dfarber_2015",29,18,"Other malignancies",0
"mel_tsam_liang_2017",29,18,"Other malignancies",0
"hnsc_mdanderson_2013",25,7,"Head and Neck cancer",0
"blca_mskcc_solit_2012",25,11,"Bladder/Ureter cancer",0
"mbl_sickkids_2016",23,17,"CNS malignancies",0
"blca_plasmacytoid_mskcc_2016",23,11,"Bladder/Ureter cancer",0
"lgg_ucsf_2014",22,17,"CNS malignancies",0
"acyc_mskcc_2013",22,7,"Head and Neck cancer",0
"urcc_mskcc_2016",20,18,"Other malignancies",0
"stad_uhongkong",20,4,"Gastroesophageal cancer",0
"odg_msk_2017",19,17,"CNS malignancies",0
"nbl_amc_2012",16,13,"Neuroendocrine cancer",0
"plmeso_nyu_2015",16,3,"Lung cancer",0
"gbm_columbia_2019",15,17,"CNS malignancies",0
"nhl_bcgsc_2011",12,8,"Hematologic malignancies",0
"pcnsl_mayo_2015",9,17,"CNS malignancies",0
"rt_target_2018_pub",9,18,"Other malignancies",0
"chol_nus_2012",8,6,"Biliary cancer",0
"sclc_cancercell_gardner_2017",2,3,"Lung cancer",0
