0,1,2,3,4,5,6,7
0.4457488,-0.4286179,-0.5026578,0.45487142,0.4633508,0.4450225,0.45581356,-0.4746099
-0.11748102,0.09253837,0.087688476,-0.07012806,-0.044928093,-0.082021475,-0.012154546,0.024059162
-0.080277294,0.079160884,0.08369534,-0.08242186,-0.06935413,-0.08885075,-0.08077988,0.04419435
0.005330384,0.016919471,0.023242254,-0.034198515,0.004576195,-0.007929046,-0.0151624195,-0.02862963
0.2008897,-0.1129259,-0.17042834,0.15720317,0.12851715,0.11704097,0.14045504,-0.19360122
0.47612965,-0.5258298,-0.52239394,0.4680388,0.5066258,0.5518708,0.5361795,-0.5583333
-0.050300714,0.055962864,0.08239038,-0.061524667,-0.05262796,-0.078977935,-0.0789708,0.036229048
-0.0512436,0.08930038,0.10501613,-0.08083055,-0.014612321,-0.086407475,-0.06974115,-0.00079253316
0.25917828,-0.22747098,-0.26157123,0.22392535,0.24441448,0.2465435,0.22882262,-0.3176551
0.3519649,-0.31848782,-0.44919762,0.41752228,0.41204032,0.4207964,0.36237547,-0.37970868
-0.12804241,0.11991213,0.11232495,-0.14266554,-0.09785342,-0.10535523,-0.114140466,0.09303062
-0.1189111,0.08948128,0.10816918,-0.12674236,-0.08543308,-0.11020781,-0.10081452,0.04234004
0.4335429,-0.40599656,-0.5052762,0.42082238,0.3994553,0.4256517,0.46671763,-0.45354867
0.012756977,-0.1393931,-0.058781203,0.097801216,0.1426866,0.042588092,0.11247669,-0.20074955
0.19969374,-0.30196658,-0.29347494,0.19158408,0.22111526,0.24666491,0.2734218,-0.22615722
0.5298125,-0.5458571,-0.5026432,0.6168371,0.4962159,0.50261503,0.5948363,-0.42304635
0.5080728,-0.21114422,-0.09072685,0.283611,0.42404643,0.20435023,0.06160638,-0.31158465
0.22274911,-0.19629498,-0.2510272,0.1818057,0.17731029,0.23567048,0.1718535,-0.16436693
0.22707433,-0.1805176,-0.26587388,0.1683661,0.09384039,0.1563865,0.17513508,-0.2607386
0.4087568,-0.3810744,-0.4254224,0.41363513,0.42828175,0.4288726,0.45533237,-0.48344707
-0.62062734,0.443972,0.5568848,-0.5258105,-0.37812272,-0.50398004,-0.46191934,0.45562708
0.5600987,-0.60362047,-0.6450801,0.52589875,0.61697733,0.6163812,0.5769549,-0.61999017
0.118351564,-0.07432155,-0.20289865,0.23332101,0.1347938,0.1958043,0.13830514,-0.1331957
-0.09851505,0.07004045,0.029783804,-0.10681875,-0.073017314,-0.035721444,-0.07702799,0.06822815
-0.080277294,0.079160884,0.08369534,-0.08242186,-0.06935413,-0.08885075,-0.08077988,0.04419435
0.3853172,-0.41543618,-0.47921732,0.45187593,0.38903412,0.43304962,0.41205278,-0.47708195
-0.080277294,0.079160884,0.08369534,-0.08242186,-0.06935413,-0.08885075,-0.08077988,0.04419435
0.0094981305,-0.012169246,-0.022299562,0.010239087,0.016989794,0.009024221,-0.0012607612,-0.025756396
-0.20020795,0.16768122,0.17707157,-0.17566788,-0.17633522,-0.19703245,-0.18520573,0.14458069
0.069717765,-0.049325492,-0.076498345,0.057132937,0.08074638,0.08484263,0.060349617,-0.10007972
0.2016459,-0.21866901,-0.31255597,0.20380524,0.21695226,0.2413477,0.22877675,-0.30889246
0.18109012,-0.1804428,-0.18672438,0.19329005,0.19597298,0.18287572,0.18064806,-0.21972609
-0.26080152,0.2529952,0.2549268,-0.26721352,-0.23545758,-0.24587497,-0.2493205,0.22819114
0.35154837,-0.32130247,-0.32854384,0.28723457,0.33975878,0.33876076,0.29810557,-0.38576669
-0.00706267,-0.009700369,-0.07293144,-0.02004736,-0.02628674,0.016405076,0.038611237,-0.03720499
0.026942689,-0.11479887,-0.09386177,0.056615047,0.053122606,0.060490556,0.0992216,-0.07545061
0.26389635,-0.4043354,-0.30715707,0.35239357,0.3865225,0.30116755,0.418636,-0.42402852
0.20831814,-0.17827831,-0.16653955,0.14455062,0.19119978,0.16838259,0.11250758,-0.17682132
0.32149816,-0.38349524,-0.3754839,0.4226547,0.40901393,0.40315327,0.41405788,-0.39305723
0.14530206,-0.14741322,-0.18694717,0.16088307,0.19568236,0.19459885,0.19282025,-0.20603165
0.10684243,-0.16580571,-0.16087434,0.13930371,0.06268361,0.082496725,0.1476583,-0.06541752
0.05699536,-0.044798825,-0.035197075,0.03326299,0.037595402,0.019744977,0.022213701,-0.064647816
0.31744027,-0.27416387,-0.39271814,0.33141524,0.30092213,0.30007073,0.33148736,-0.31355447
0.32141325,-0.26138374,-0.3189563,0.21017596,0.29815876,0.32507056,0.23651057,-0.3434762
0.34565067,-0.32015556,-0.31024608,0.39734212,0.4501554,0.36464703,0.34570602,-0.3260947
0.30589044,-0.2598351,-0.27059498,0.23863077,0.27780867,0.27511513,0.21476007,-0.27218154
0.34606737,-0.35015896,-0.44566557,0.40822464,0.3001933,0.3685181,0.3871145,-0.38365516
-0.2893771,0.27587065,0.28320664,-0.2812459,-0.2660387,-0.28249642,-0.28789318,0.25323805
-0.050739046,0.06932053,0.05862159,-0.070030816,-0.04421293,-0.055831283,-0.056642916,0.01087869
0.37721443,-0.4581999,-0.44114417,0.39298868,0.32944927,0.38138568,0.3727086,-0.4634412
0.1827226,-0.2592485,-0.19633043,0.21207139,0.23105082,0.26115233,0.29360208,-0.27924818
0.1131354,-0.245874,-0.24032852,0.22340116,0.219834,0.26274619,0.3378318,-0.24644005
0.22383547,-0.24683751,-0.27751595,0.25736848,0.18134084,0.23284757,0.2588824,-0.25205535
0.039930794,0.027278934,0.1957052,-0.10880869,-0.10622516,-0.20857093,-0.13429832,-0.07463998
-0.06774624,0.08289033,0.10817437,-0.08648705,-0.047881994,-0.084386595,-0.08812341,0.048308127
0.30191255,-0.32709095,-0.26412916,0.27733973,0.2794573,0.21851844,0.26997462,-0.36833924
-0.28614688,0.25914058,0.26419672,-0.25736105,-0.25686267,-0.2792367,-0.24362072,0.27616358
-0.14754169,0.115879014,0.12869632,-0.1309697,-0.08867258,-0.110896945,-0.10491292,0.07327105
0.07174522,-0.103969365,-0.24122554,0.23345017,0.094085276,0.13511217,0.22636694,-0.12254482
0.1860356,-0.22863041,-0.29506078,0.21174222,0.3362349,0.28996262,0.2886428,-0.337535
0.2363458,-0.3528695,-0.22007218,0.36245182,0.23123366,0.22095543,0.41790143,-0.36979952
0.041562352,-0.041877244,-0.06860584,0.04964543,0.04038253,0.05730468,0.03255562,-0.07834294
0.5206632,-0.61759657,-0.65953344,0.5099388,0.57606757,0.6092054,0.62846327,-0.64979297
0.13990961,-0.16239677,-0.21321902,0.14413488,0.20543796,0.20071009,0.17250198,-0.17053986
0.54104203,-0.5142329,-0.60231566,0.60508895,0.7110268,0.64589846,0.55826575,-0.58178055
0.07737468,-0.09071855,-0.10102053,0.058405392,0.11544527,0.100759394,0.07967132,-0.16013476
0.0908519,-0.18869162,-0.06588367,0.08118183,0.2105475,0.16359028,0.17651418,-0.058307864
-0.18192744,0.4390189,0.21673474,-0.28966302,-0.427253,-0.31556597,-0.2105417,0.42457753
0.27927864,-0.20637684,-0.26944426,0.24916175,0.2381846,0.30327705,0.3168107,-0.2895481
0.46738154,-0.50315285,-0.54490405,0.4197745,0.33247712,0.4036191,0.5438681,-0.5446215
-0.18374513,0.16063316,0.1848017,-0.17325002,-0.18363194,-0.19565567,-0.16645764,0.1575054
0.21673375,-0.23017259,-0.30250376,0.251872,0.18673319,0.21076885,0.28451708,-0.27977514
-0.11571394,0.09340458,0.112609476,-0.12416909,-0.09868333,-0.11205065,-0.10413621,0.082430236
0.15355942,-0.18411858,-0.10498437,0.14569682,0.18185404,0.14073482,0.15861318,-0.2626133
0.3111122,-0.28968313,-0.37186295,0.31293604,0.30893958,0.3514414,0.32327133,-0.35214335
0.5053905,-0.55366397,-0.5864216,0.493836,0.50533104,0.51538426,0.4846709,-0.49587655
0.3750314,-0.41086376,-0.4538443,0.41018853,0.40561792,0.44354784,0.44160303,-0.43259156
0.31375873,-0.4605793,-0.46019462,0.61331093,0.60058147,0.44034132,0.50334895,-0.42570508
0.006647039,-0.011634458,-0.11818181,0.016520627,0.0022674464,0.09281894,0.038973127,0.05920228
0.18665147,-0.21074297,-0.19646212,0.12701723,0.13951086,0.12973657,0.13637298,-0.20835635
-0.33507928,0.28653166,0.2788599,-0.30101296,-0.2849742,-0.28076756,-0.25421426,0.25033334
0.32131177,-0.32708493,-0.3950165,0.24074754,0.29007432,0.36328372,0.3522382,-0.3318817
0.45886824,-0.47732857,-0.4441895,0.41739324,0.46665815,0.4432442,0.4469447,-0.47356647
